-- Merging decision tree log ---
manifest
ADDED from /Users/palm/AndroidStudioProjects/MyMessagingApp/app/src/main/AndroidManifest.xml:2:1-22:12
INJECTED from /Users/palm/AndroidStudioProjects/MyMessagingApp/app/src/main/AndroidManifest.xml:2:1-22:12
INJECTED from /Users/palm/AndroidStudioProjects/MyMessagingApp/app/src/main/AndroidManifest.xml:2:1-22:12
INJECTED from /Users/palm/AndroidStudioProjects/MyMessagingApp/app/src/main/AndroidManifest.xml:2:1-22:12
MERGED from [androidx.appcompat:appcompat:1.1.0] /Users/palm/.gradle/caches/transforms-2/files-2.1/c2c5fa787d66aaf40578b3071f4d283f/appcompat-1.1.0/AndroidManifest.xml:17:1-24:12
MERGED from [androidx.constraintlayout:constraintlayout:1.1.3] /Users/palm/.gradle/caches/transforms-2/files-2.1/28120aa98d624ce8fee0a8087788fd91/constraintlayout-1.1.3/AndroidManifest.xml:2:1-11:12
MERGED from [androidx.fragment:fragment:1.1.0] /Users/palm/.gradle/caches/transforms-2/files-2.1/ce61250d0f7070aaab97d5c03ab2ab2e/fragment-1.1.0/AndroidManifest.xml:17:1-24:12
MERGED from [androidx.appcompat:appcompat-resources:1.1.0] /Users/palm/.gradle/caches/transforms-2/files-2.1/7c534088c709ef4f962350c99f0510e9/jetified-appcompat-resources-1.1.0/AndroidManifest.xml:17:1-24:12
MERGED from [androidx.drawerlayout:drawerlayout:1.0.0] /Users/palm/.gradle/caches/transforms-2/files-2.1/385ad0333dd34005ac3b322f68c176b9/drawerlayout-1.0.0/AndroidManifest.xml:17:1-22:12
MERGED from [androidx.viewpager:viewpager:1.0.0] /Users/palm/.gradle/caches/transforms-2/files-2.1/32e32c376d22cae962a95f2aba892822/viewpager-1.0.0/AndroidManifest.xml:17:1-22:12
MERGED from [androidx.loader:loader:1.0.0] /Users/palm/.gradle/caches/transforms-2/files-2.1/c3d8ec33b66c793058ded980a54c4fd5/loader-1.0.0/AndroidManifest.xml:17:1-22:12
MERGED from [androidx.activity:activity:1.0.0] /Users/palm/.gradle/caches/transforms-2/files-2.1/4d3e32c2f901863288c7ff80fcf0967a/jetified-activity-1.0.0/AndroidManifest.xml:17:1-24:12
MERGED from [androidx.vectordrawable:vectordrawable-animated:1.1.0] /Users/palm/.gradle/caches/transforms-2/files-2.1/3cf213e33fb5a76421a4e937ff33f07e/vectordrawable-animated-1.1.0/AndroidManifest.xml:17:1-24:12
MERGED from [androidx.vectordrawable:vectordrawable:1.1.0] /Users/palm/.gradle/caches/transforms-2/files-2.1/bde687302d742df89f7d227a2e48b0d9/vectordrawable-1.1.0/AndroidManifest.xml:17:1-24:12
MERGED from [androidx.customview:customview:1.0.0] /Users/palm/.gradle/caches/transforms-2/files-2.1/e968a555a0e08b03627a3441cae31e6b/customview-1.0.0/AndroidManifest.xml:17:1-22:12
MERGED from [androidx.core:core:1.1.0] /Users/palm/.gradle/caches/transforms-2/files-2.1/03736cf4bc3669a69d502627b70a527e/core-1.1.0/AndroidManifest.xml:17:1-26:12
MERGED from [androidx.cursoradapter:cursoradapter:1.0.0] /Users/palm/.gradle/caches/transforms-2/files-2.1/28174e475fcfd6ae966ed5772f6694ac/cursoradapter-1.0.0/AndroidManifest.xml:17:1-22:12
MERGED from [androidx.versionedparcelable:versionedparcelable:1.1.0] /Users/palm/.gradle/caches/transforms-2/files-2.1/3c1a5ebf565097fe10667d6b9a2c1703/versionedparcelable-1.1.0/AndroidManifest.xml:17:1-27:12
MERGED from [androidx.lifecycle:lifecycle-runtime:2.1.0] /Users/palm/.gradle/caches/transforms-2/files-2.1/3f5e37635a712470204c0315e55f1003/lifecycle-runtime-2.1.0/AndroidManifest.xml:17:1-22:12
MERGED from [androidx.lifecycle:lifecycle-viewmodel:2.1.0] /Users/palm/.gradle/caches/transforms-2/files-2.1/552d05fff7df0b1caee9db39c74659fe/lifecycle-viewmodel-2.1.0/AndroidManifest.xml:17:1-22:12
MERGED from [androidx.savedstate:savedstate:1.0.0] /Users/palm/.gradle/caches/transforms-2/files-2.1/8a52da53b02a83b08615debb9b2e109c/jetified-savedstate-1.0.0/AndroidManifest.xml:17:1-24:12
MERGED from [androidx.interpolator:interpolator:1.0.0] /Users/palm/.gradle/caches/transforms-2/files-2.1/3e5d045fdd42de39d437ce94a2ff87c7/interpolator-1.0.0/AndroidManifest.xml:17:1-22:12
MERGED from [androidx.lifecycle:lifecycle-livedata:2.0.0] /Users/palm/.gradle/caches/transforms-2/files-2.1/ed8cc0ac00b11c0234ef1e5a578c70c1/lifecycle-livedata-2.0.0/AndroidManifest.xml:17:1-22:12
MERGED from [androidx.lifecycle:lifecycle-livedata-core:2.0.0] /Users/palm/.gradle/caches/transforms-2/files-2.1/df4d09f70e3f533a2fede8f96085147c/lifecycle-livedata-core-2.0.0/AndroidManifest.xml:17:1-22:12
MERGED from [androidx.arch.core:core-runtime:2.0.0] /Users/palm/.gradle/caches/transforms-2/files-2.1/c16c855844b564ee7204d4d6005470fb/core-runtime-2.0.0/AndroidManifest.xml:17:1-22:12
INJECTED from /Users/palm/AndroidStudioProjects/MyMessagingApp/app/src/main/AndroidManifest.xml:2:1-22:12
INJECTED from /Users/palm/AndroidStudioProjects/MyMessagingApp/app/src/main/AndroidManifest.xml:2:1-22:12
INJECTED from /Users/palm/AndroidStudioProjects/MyMessagingApp/app/src/main/AndroidManifest.xml:2:1-22:12
	package
		ADDED from /Users/palm/AndroidStudioProjects/MyMessagingApp/app/src/main/AndroidManifest.xml:3:5-41
		INJECTED from /Users/palm/AndroidStudioProjects/MyMessagingApp/app/src/main/AndroidManifest.xml
		INJECTED from /Users/palm/AndroidStudioProjects/MyMessagingApp/app/src/main/AndroidManifest.xml
	android:versionName
		INJECTED from /Users/palm/AndroidStudioProjects/MyMessagingApp/app/src/main/AndroidManifest.xml
		ADDED from /Users/palm/AndroidStudioProjects/MyMessagingApp/app/src/main/AndroidManifest.xml:2:1-22:12
		INJECTED from /Users/palm/AndroidStudioProjects/MyMessagingApp/app/src/main/AndroidManifest.xml
	android:versionCode
		INJECTED from /Users/palm/AndroidStudioProjects/MyMessagingApp/app/src/main/AndroidManifest.xml
		ADDED from /Users/palm/AndroidStudioProjects/MyMessagingApp/app/src/main/AndroidManifest.xml:2:1-22:12
		INJECTED from /Users/palm/AndroidStudioProjects/MyMessagingApp/app/src/main/AndroidManifest.xml
	xmlns:android
		ADDED from /Users/palm/AndroidStudioProjects/MyMessagingApp/app/src/main/AndroidManifest.xml:2:11-69
application
ADDED from /Users/palm/AndroidStudioProjects/MyMessagingApp/app/src/main/AndroidManifest.xml:5:5-20:19
MERGED from [androidx.constraintlayout:constraintlayout:1.1.3] /Users/palm/.gradle/caches/transforms-2/files-2.1/28120aa98d624ce8fee0a8087788fd91/constraintlayout-1.1.3/AndroidManifest.xml:9:5-20
MERGED from [androidx.constraintlayout:constraintlayout:1.1.3] /Users/palm/.gradle/caches/transforms-2/files-2.1/28120aa98d624ce8fee0a8087788fd91/constraintlayout-1.1.3/AndroidManifest.xml:9:5-20
MERGED from [androidx.core:core:1.1.0] /Users/palm/.gradle/caches/transforms-2/files-2.1/03736cf4bc3669a69d502627b70a527e/core-1.1.0/AndroidManifest.xml:24:5-89
MERGED from [androidx.core:core:1.1.0] /Users/palm/.gradle/caches/transforms-2/files-2.1/03736cf4bc3669a69d502627b70a527e/core-1.1.0/AndroidManifest.xml:24:5-89
MERGED from [androidx.versionedparcelable:versionedparcelable:1.1.0] /Users/palm/.gradle/caches/transforms-2/files-2.1/3c1a5ebf565097fe10667d6b9a2c1703/versionedparcelable-1.1.0/AndroidManifest.xml:24:5-25:19
MERGED from [androidx.versionedparcelable:versionedparcelable:1.1.0] /Users/palm/.gradle/caches/transforms-2/files-2.1/3c1a5ebf565097fe10667d6b9a2c1703/versionedparcelable-1.1.0/AndroidManifest.xml:24:5-25:19
	android:appComponentFactory
		ADDED from [androidx.core:core:1.1.0] /Users/palm/.gradle/caches/transforms-2/files-2.1/03736cf4bc3669a69d502627b70a527e/core-1.1.0/AndroidManifest.xml:24:18-86
	android:supportsRtl
		ADDED from /Users/palm/AndroidStudioProjects/MyMessagingApp/app/src/main/AndroidManifest.xml:10:9-35
	android:label
		ADDED from /Users/palm/AndroidStudioProjects/MyMessagingApp/app/src/main/AndroidManifest.xml:8:9-41
	android:roundIcon
		ADDED from /Users/palm/AndroidStudioProjects/MyMessagingApp/app/src/main/AndroidManifest.xml:9:9-54
	android:icon
		ADDED from /Users/palm/AndroidStudioProjects/MyMessagingApp/app/src/main/AndroidManifest.xml:7:9-43
	android:allowBackup
		ADDED from /Users/palm/AndroidStudioProjects/MyMessagingApp/app/src/main/AndroidManifest.xml:6:9-35
	android:theme
		ADDED from /Users/palm/AndroidStudioProjects/MyMessagingApp/app/src/main/AndroidManifest.xml:11:9-40
activity#com.example.mymessagingapp.activity_phonenumber
ADDED from /Users/palm/AndroidStudioProjects/MyMessagingApp/app/src/main/AndroidManifest.xml:12:9-66
	android:name
		ADDED from /Users/palm/AndroidStudioProjects/MyMessagingApp/app/src/main/AndroidManifest.xml:12:19-54
activity#com.example.mymessagingapp.MainActivity
ADDED from /Users/palm/AndroidStudioProjects/MyMessagingApp/app/src/main/AndroidManifest.xml:13:9-19:20
	android:name
		ADDED from /Users/palm/AndroidStudioProjects/MyMessagingApp/app/src/main/AndroidManifest.xml:13:19-47
intent-filter#action:name:android.intent.action.MAIN+category:name:android.intent.category.LAUNCHER
ADDED from /Users/palm/AndroidStudioProjects/MyMessagingApp/app/src/main/AndroidManifest.xml:14:13-18:29
action#android.intent.action.MAIN
ADDED from /Users/palm/AndroidStudioProjects/MyMessagingApp/app/src/main/AndroidManifest.xml:15:17-69
	android:name
		ADDED from /Users/palm/AndroidStudioProjects/MyMessagingApp/app/src/main/AndroidManifest.xml:15:25-66
category#android.intent.category.LAUNCHER
ADDED from /Users/palm/AndroidStudioProjects/MyMessagingApp/app/src/main/AndroidManifest.xml:17:17-77
	android:name
		ADDED from /Users/palm/AndroidStudioProjects/MyMessagingApp/app/src/main/AndroidManifest.xml:17:27-74
uses-sdk
INJECTED from /Users/palm/AndroidStudioProjects/MyMessagingApp/app/src/main/AndroidManifest.xml reason: use-sdk injection requested
INJECTED from /Users/palm/AndroidStudioProjects/MyMessagingApp/app/src/main/AndroidManifest.xml
INJECTED from /Users/palm/AndroidStudioProjects/MyMessagingApp/app/src/main/AndroidManifest.xml
MERGED from [androidx.appcompat:appcompat:1.1.0] /Users/palm/.gradle/caches/transforms-2/files-2.1/c2c5fa787d66aaf40578b3071f4d283f/appcompat-1.1.0/AndroidManifest.xml:20:5-22:41
MERGED from [androidx.appcompat:appcompat:1.1.0] /Users/palm/.gradle/caches/transforms-2/files-2.1/c2c5fa787d66aaf40578b3071f4d283f/appcompat-1.1.0/AndroidManifest.xml:20:5-22:41
MERGED from [androidx.constraintlayout:constraintlayout:1.1.3] /Users/palm/.gradle/caches/transforms-2/files-2.1/28120aa98d624ce8fee0a8087788fd91/constraintlayout-1.1.3/AndroidManifest.xml:5:5-7:41
MERGED from [androidx.constraintlayout:constraintlayout:1.1.3] /Users/palm/.gradle/caches/transforms-2/files-2.1/28120aa98d624ce8fee0a8087788fd91/constraintlayout-1.1.3/AndroidManifest.xml:5:5-7:41
MERGED from [androidx.fragment:fragment:1.1.0] /Users/palm/.gradle/caches/transforms-2/files-2.1/ce61250d0f7070aaab97d5c03ab2ab2e/fragment-1.1.0/AndroidManifest.xml:20:5-22:41
MERGED from [androidx.fragment:fragment:1.1.0] /Users/palm/.gradle/caches/transforms-2/files-2.1/ce61250d0f7070aaab97d5c03ab2ab2e/fragment-1.1.0/AndroidManifest.xml:20:5-22:41
MERGED from [androidx.appcompat:appcompat-resources:1.1.0] /Users/palm/.gradle/caches/transforms-2/files-2.1/7c534088c709ef4f962350c99f0510e9/jetified-appcompat-resources-1.1.0/AndroidManifest.xml:20:5-22:41
MERGED from [androidx.appcompat:appcompat-resources:1.1.0] /Users/palm/.gradle/caches/transforms-2/files-2.1/7c534088c709ef4f962350c99f0510e9/jetified-appcompat-resources-1.1.0/AndroidManifest.xml:20:5-22:41
MERGED from [androidx.drawerlayout:drawerlayout:1.0.0] /Users/palm/.gradle/caches/transforms-2/files-2.1/385ad0333dd34005ac3b322f68c176b9/drawerlayout-1.0.0/AndroidManifest.xml:20:5-44
MERGED from [androidx.drawerlayout:drawerlayout:1.0.0] /Users/palm/.gradle/caches/transforms-2/files-2.1/385ad0333dd34005ac3b322f68c176b9/drawerlayout-1.0.0/AndroidManifest.xml:20:5-44
MERGED from [androidx.viewpager:viewpager:1.0.0] /Users/palm/.gradle/caches/transforms-2/files-2.1/32e32c376d22cae962a95f2aba892822/viewpager-1.0.0/AndroidManifest.xml:20:5-44
MERGED from [androidx.viewpager:viewpager:1.0.0] /Users/palm/.gradle/caches/transforms-2/files-2.1/32e32c376d22cae962a95f2aba892822/viewpager-1.0.0/AndroidManifest.xml:20:5-44
MERGED from [androidx.loader:loader:1.0.0] /Users/palm/.gradle/caches/transforms-2/files-2.1/c3d8ec33b66c793058ded980a54c4fd5/loader-1.0.0/AndroidManifest.xml:20:5-44
MERGED from [androidx.loader:loader:1.0.0] /Users/palm/.gradle/caches/transforms-2/files-2.1/c3d8ec33b66c793058ded980a54c4fd5/loader-1.0.0/AndroidManifest.xml:20:5-44
MERGED from [androidx.activity:activity:1.0.0] /Users/palm/.gradle/caches/transforms-2/files-2.1/4d3e32c2f901863288c7ff80fcf0967a/jetified-activity-1.0.0/AndroidManifest.xml:20:5-22:41
MERGED from [androidx.activity:activity:1.0.0] /Users/palm/.gradle/caches/transforms-2/files-2.1/4d3e32c2f901863288c7ff80fcf0967a/jetified-activity-1.0.0/AndroidManifest.xml:20:5-22:41
MERGED from [androidx.vectordrawable:vectordrawable-animated:1.1.0] /Users/palm/.gradle/caches/transforms-2/files-2.1/3cf213e33fb5a76421a4e937ff33f07e/vectordrawable-animated-1.1.0/AndroidManifest.xml:20:5-22:41
MERGED from [androidx.vectordrawable:vectordrawable-animated:1.1.0] /Users/palm/.gradle/caches/transforms-2/files-2.1/3cf213e33fb5a76421a4e937ff33f07e/vectordrawable-animated-1.1.0/AndroidManifest.xml:20:5-22:41
MERGED from [androidx.vectordrawable:vectordrawable:1.1.0] /Users/palm/.gradle/caches/transforms-2/files-2.1/bde687302d742df89f7d227a2e48b0d9/vectordrawable-1.1.0/AndroidManifest.xml:20:5-22:41
MERGED from [androidx.vectordrawable:vectordrawable:1.1.0] /Users/palm/.gradle/caches/transforms-2/files-2.1/bde687302d742df89f7d227a2e48b0d9/vectordrawable-1.1.0/AndroidManifest.xml:20:5-22:41
MERGED from [androidx.customview:customview:1.0.0] /Users/palm/.gradle/caches/transforms-2/files-2.1/e968a555a0e08b03627a3441cae31e6b/customview-1.0.0/AndroidManifest.xml:20:5-44
MERGED from [androidx.customview:customview:1.0.0] /Users/palm/.gradle/caches/transforms-2/files-2.1/e968a555a0e08b03627a3441cae31e6b/customview-1.0.0/AndroidManifest.xml:20:5-44
MERGED from [androidx.core:core:1.1.0] /Users/palm/.gradle/caches/transforms-2/files-2.1/03736cf4bc3669a69d502627b70a527e/core-1.1.0/AndroidManifest.xml:20:5-22:41
MERGED from [androidx.core:core:1.1.0] /Users/palm/.gradle/caches/transforms-2/files-2.1/03736cf4bc3669a69d502627b70a527e/core-1.1.0/AndroidManifest.xml:20:5-22:41
MERGED from [androidx.cursoradapter:cursoradapter:1.0.0] /Users/palm/.gradle/caches/transforms-2/files-2.1/28174e475fcfd6ae966ed5772f6694ac/cursoradapter-1.0.0/AndroidManifest.xml:20:5-44
MERGED from [androidx.cursoradapter:cursoradapter:1.0.0] /Users/palm/.gradle/caches/transforms-2/files-2.1/28174e475fcfd6ae966ed5772f6694ac/cursoradapter-1.0.0/AndroidManifest.xml:20:5-44
MERGED from [androidx.versionedparcelable:versionedparcelable:1.1.0] /Users/palm/.gradle/caches/transforms-2/files-2.1/3c1a5ebf565097fe10667d6b9a2c1703/versionedparcelable-1.1.0/AndroidManifest.xml:20:5-22:41
MERGED from [androidx.versionedparcelable:versionedparcelable:1.1.0] /Users/palm/.gradle/caches/transforms-2/files-2.1/3c1a5ebf565097fe10667d6b9a2c1703/versionedparcelable-1.1.0/AndroidManifest.xml:20:5-22:41
MERGED from [androidx.lifecycle:lifecycle-runtime:2.1.0] /Users/palm/.gradle/caches/transforms-2/files-2.1/3f5e37635a712470204c0315e55f1003/lifecycle-runtime-2.1.0/AndroidManifest.xml:20:5-44
MERGED from [androidx.lifecycle:lifecycle-runtime:2.1.0] /Users/palm/.gradle/caches/transforms-2/files-2.1/3f5e37635a712470204c0315e55f1003/lifecycle-runtime-2.1.0/AndroidManifest.xml:20:5-44
MERGED from [androidx.lifecycle:lifecycle-viewmodel:2.1.0] /Users/palm/.gradle/caches/transforms-2/files-2.1/552d05fff7df0b1caee9db39c74659fe/lifecycle-viewmodel-2.1.0/AndroidManifest.xml:20:5-44
MERGED from [androidx.lifecycle:lifecycle-viewmodel:2.1.0] /Users/palm/.gradle/caches/transforms-2/files-2.1/552d05fff7df0b1caee9db39c74659fe/lifecycle-viewmodel-2.1.0/AndroidManifest.xml:20:5-44
MERGED from [androidx.savedstate:savedstate:1.0.0] /Users/palm/.gradle/caches/transforms-2/files-2.1/8a52da53b02a83b08615debb9b2e109c/jetified-savedstate-1.0.0/AndroidManifest.xml:20:5-22:41
MERGED from [androidx.savedstate:savedstate:1.0.0] /Users/palm/.gradle/caches/transforms-2/files-2.1/8a52da53b02a83b08615debb9b2e109c/jetified-savedstate-1.0.0/AndroidManifest.xml:20:5-22:41
MERGED from [androidx.interpolator:interpolator:1.0.0] /Users/palm/.gradle/caches/transforms-2/files-2.1/3e5d045fdd42de39d437ce94a2ff87c7/interpolator-1.0.0/AndroidManifest.xml:20:5-44
MERGED from [androidx.interpolator:interpolator:1.0.0] /Users/palm/.gradle/caches/transforms-2/files-2.1/3e5d045fdd42de39d437ce94a2ff87c7/interpolator-1.0.0/AndroidManifest.xml:20:5-44
MERGED from [androidx.lifecycle:lifecycle-livedata:2.0.0] /Users/palm/.gradle/caches/transforms-2/files-2.1/ed8cc0ac00b11c0234ef1e5a578c70c1/lifecycle-livedata-2.0.0/AndroidManifest.xml:20:5-44
MERGED from [androidx.lifecycle:lifecycle-livedata:2.0.0] /Users/palm/.gradle/caches/transforms-2/files-2.1/ed8cc0ac00b11c0234ef1e5a578c70c1/lifecycle-livedata-2.0.0/AndroidManifest.xml:20:5-44
MERGED from [androidx.lifecycle:lifecycle-livedata-core:2.0.0] /Users/palm/.gradle/caches/transforms-2/files-2.1/df4d09f70e3f533a2fede8f96085147c/lifecycle-livedata-core-2.0.0/AndroidManifest.xml:20:5-44
MERGED from [androidx.lifecycle:lifecycle-livedata-core:2.0.0] /Users/palm/.gradle/caches/transforms-2/files-2.1/df4d09f70e3f533a2fede8f96085147c/lifecycle-livedata-core-2.0.0/AndroidManifest.xml:20:5-44
MERGED from [androidx.arch.core:core-runtime:2.0.0] /Users/palm/.gradle/caches/transforms-2/files-2.1/c16c855844b564ee7204d4d6005470fb/core-runtime-2.0.0/AndroidManifest.xml:20:5-44
MERGED from [androidx.arch.core:core-runtime:2.0.0] /Users/palm/.gradle/caches/transforms-2/files-2.1/c16c855844b564ee7204d4d6005470fb/core-runtime-2.0.0/AndroidManifest.xml:20:5-44
INJECTED from /Users/palm/AndroidStudioProjects/MyMessagingApp/app/src/main/AndroidManifest.xml
INJECTED from /Users/palm/AndroidStudioProjects/MyMessagingApp/app/src/main/AndroidManifest.xml
	android:targetSdkVersion
		INJECTED from /Users/palm/AndroidStudioProjects/MyMessagingApp/app/src/main/AndroidManifest.xml
		ADDED from /Users/palm/AndroidStudioProjects/MyMessagingApp/app/src/main/AndroidManifest.xml
		INJECTED from /Users/palm/AndroidStudioProjects/MyMessagingApp/app/src/main/AndroidManifest.xml
	android:minSdkVersion
		INJECTED from /Users/palm/AndroidStudioProjects/MyMessagingApp/app/src/main/AndroidManifest.xml
		ADDED from /Users/palm/AndroidStudioProjects/MyMessagingApp/app/src/main/AndroidManifest.xml
		INJECTED from /Users/palm/AndroidStudioProjects/MyMessagingApp/app/src/main/AndroidManifest.xml
